{"name":"Validacion Correcta de Api servicio2","id":"validacion-rest-servicio2;validacion-correcta-de-api-servicio2","testSteps":[{"number":1,"description":"Given Luis quiere consumir el api rest servicio2","duration":153,"startTime":"2020-06-18T11:13:35.660-05:00[America/Bogota]","result":"SUCCESS","precondition":false,"level":0},{"number":2,"description":"When el envia la peticion rest servicio2","duration":3736,"startTime":"2020-06-18T11:13:35.818-05:00[America/Bogota]","result":"SUCCESS","precondition":false,"level":0,"children":[{"number":3,"description":"Luis qa auto tester get users","duration":3556,"startTime":"2020-06-18T11:13:35.949-05:00[America/Bogota]","result":"SUCCESS","precondition":false,"level":1,"children":[{"number":4,"description":"Luis Qa Auto Tester executes a GET on the resource /users?page\u003d2","duration":3425,"startTime":"2020-06-18T11:13:36.076-05:00[America/Bogota]","result":"SUCCESS","precondition":false,"level":2,"children":[{"number":5,"description":"GET https://reqres.in/api/users?page\u003d2\r","duration":1,"startTime":"2020-06-18T11:13:39.500-05:00[America/Bogota]","result":"SUCCESS","restQuery":{"method":"GET","path":"https://reqres.in/api/users?page\u003d2\r","content":"\r","contentType":"application/json","requestHeaders":"header1\u003dvalue1\r\n\t\t\t\tAccept\u003d*/*\r\n\t\t\t\tContent-Type\u003dapplication/json; charset\u003dUTF-8\r","requestCookies":"\r","responseHeaders":"Date: Thu, 18 Jun 2020 16:13:41 GMT\r\nContent-Type: application/json; charset\u003dutf-8\r\nTransfer-Encoding: chunked\r\nConnection: keep-alive\r\nSet-Cookie: __cfduid\u003ddd1fb5442e5bb6797d8413aa68909056d1592496821; expires\u003dSat, 18-Jul-20 16:13:41 GMT; path\u003d/; domain\u003d.reqres.in; HttpOnly; SameSite\u003dLax; Secure\r\nX-Powered-By: Express\r\nAccess-Control-Allow-Origin: *\r\nEtag: W/\"4dd-IPv5LdOOb6s5S9E3i59wBCJ1k/0\"\r\nVia: 1.1 vegur\r\nCache-Control: max-age\u003d14400\r\nCF-Cache-Status: HIT\r\nAge: 4652\r\ncf-request-id: 0369ce2c8f0000e97c7827e200000001\r\nExpect-CT: max-age\u003d604800, report-uri\u003d\"https://report-uri.cloudflare.com/cdn-cgi/beacon/expect-ct\"\r\nVary: Accept-Encoding\r\nServer: cloudflare\r\nCF-RAY: 5a564c8dbc03e97c-MIA\r\nContent-Encoding: gzip\r","responseCookies":"__cfduid\u003ddd1fb5442e5bb6797d8413aa68909056d1592496821;Path\u003d/;Domain\u003d.reqres.in;Secure;HttpOnly;Expires\u003d18/07/20 04:13 PM\r","responseBody":"{\n    \"page\": 2,\n    \"per_page\": 6,\n    \"total\": 12,\n    \"total_pages\": 2,\n    \"data\": [\n        {\n            \"id\": 7,\n            \"email\": \"michael.lawson@reqres.in\",\n            \"first_name\": \"Michael\",\n            \"last_name\": \"Lawson\",\n            \"avatar\": \"https://s3.amazonaws.com/uifaces/faces/twitter/follettkyle/128.jpg\"\n        },\n        {\n            \"id\": 8,\n            \"email\": \"lindsay.ferguson@reqres.in\",\n            \"first_name\": \"Lindsay\",\n            \"last_name\": \"Ferguson\",\n            \"avatar\": \"https://s3.amazonaws.com/uifaces/faces/twitter/araa3185/128.jpg\"\n        },\n        {\n            \"id\": 9,\n            \"email\": \"tobias.funke@reqres.in\",\n            \"first_name\": \"Tobias\",\n            \"last_name\": \"Funke\",\n            \"avatar\": \"https://s3.amazonaws.com/uifaces/faces/twitter/vivekprvr/128.jpg\"\n        },\n        {\n            \"id\": 10,\n            \"email\": \"byron.fields@reqres.in\",\n            \"first_name\": \"Byron\",\n            \"last_name\": \"Fields\",\n            \"avatar\": \"https://s3.amazonaws.com/uifaces/faces/twitter/russoedu/128.jpg\"\n        },\n        {\n            \"id\": 11,\n            \"email\": \"george.edwards@reqres.in\",\n            \"first_name\": \"George\",\n            \"last_name\": \"Edwards\",\n            \"avatar\": \"https://s3.amazonaws.com/uifaces/faces/twitter/mrmoiree/128.jpg\"\n        },\n        {\n            \"id\": 12,\n            \"email\": \"rachel.howell@reqres.in\",\n            \"first_name\": \"Rachel\",\n            \"last_name\": \"Howell\",\n            \"avatar\": \"https://s3.amazonaws.com/uifaces/faces/twitter/hebertialmeida/128.jpg\"\n        }\n    ],\n    \"ad\": {\n        \"company\": \"StatusCode Weekly\",\n        \"url\": \"http://statuscode.org/\",\n        \"text\": \"A weekly newsletter focusing on software development, infrastructure, the server, performance, and the stack end of things.\"\n    }\n}","statusCode":200},"precondition":false,"level":3}]}]}]},{"number":6,"description":"Then debe recibir las validaciones necesarias rest servicio2","duration":116,"startTime":"2020-06-18T11:13:39.555-05:00[America/Bogota]","result":"SUCCESS","precondition":false,"level":0,"children":[{"number":7,"description":"Then El responsecode  should be (200)","duration":5,"startTime":"2020-06-18T11:13:39.660-05:00[America/Bogota]","result":"SUCCESS","precondition":false,"level":1},{"number":8,"description":"Then Usuario no es null should be not null","duration":1,"startTime":"2020-06-18T11:13:39.668-05:00[America/Bogota]","result":"SUCCESS","precondition":false,"level":1},{"number":9,"description":"Then El email del usuario should be \u0027lindsay.ferguson@reqres.in\u0027","duration":1,"startTime":"2020-06-18T11:13:39.670-05:00[America/Bogota]","result":"SUCCESS","precondition":false,"level":1}]}],"userStory":{"id":"validacion-rest-servicio2","storyName":"Validacion Rest servicio2","path":"C:/Users/lucho/IdeaProjects/rappi1/src/resources/features/test2.feature","narrative":"  Se requiere validar el response code y un campo del response","type":"feature"},"featureTag":{"name":"Features/Validacion Rest servicio2","type":"feature","displayName":"Features/Validacion Rest servicio2"},"title":"Validacion Correcta de Api servicio2","tags":[{"name":"Validacion Rest servicio2","type":"feature","displayName":"Validacion Rest servicio2"}],"startTime":"2020-06-18T11:13:35.554-05:00[America/Bogota]","duration":4120,"projectKey":"","manual":false,"testSource":"Cucumber","actors":[{"name":"Luis Qa Auto Tester","can":["call an API at https://reqres.in/api"]}],"result":"SUCCESS"}