{"name":"Validacion Correcta de Api servicio1","id":"validacion-rest-servicio1;validacion-correcta-de-api-servicio1","testSteps":[{"number":1,"description":"Given Luis quiere consumir el api rest servicio1","duration":196,"startTime":"2020-06-18T11:08:46.718-05:00[America/Bogota]","result":"SUCCESS","precondition":false,"level":0},{"number":2,"description":"When el envia la peticion rest servicio1","duration":3528,"startTime":"2020-06-18T11:08:46.920-05:00[America/Bogota]","result":"SUCCESS","precondition":false,"level":0,"children":[{"number":3,"description":"Luis qa auto tester get users","duration":3340,"startTime":"2020-06-18T11:08:47.058-05:00[America/Bogota]","result":"SUCCESS","precondition":false,"level":1,"children":[{"number":4,"description":"Luis Qa Auto Tester executes a GET on the resource /users?page\u003d1","duration":3257,"startTime":"2020-06-18T11:08:47.133-05:00[America/Bogota]","result":"SUCCESS","precondition":false,"level":2,"children":[{"number":5,"description":"GET https://reqres.in/api/users?page\u003d1\r","duration":1,"startTime":"2020-06-18T11:08:50.389-05:00[America/Bogota]","result":"SUCCESS","restQuery":{"method":"GET","path":"https://reqres.in/api/users?page\u003d1\r","content":"\r","contentType":"application/json","requestHeaders":"header1\u003dvalue1\r\n\t\t\t\tAccept\u003d*/*\r\n\t\t\t\tContent-Type\u003dapplication/json; charset\u003dUTF-8\r","requestCookies":"\r","responseHeaders":"Date: Thu, 18 Jun 2020 16:08:52 GMT\r\nContent-Type: application/json; charset\u003dutf-8\r\nTransfer-Encoding: chunked\r\nConnection: keep-alive\r\nSet-Cookie: __cfduid\u003dd823bd5fae433dd429426f6852b9bd0d31592496532; expires\u003dSat, 18-Jul-20 16:08:52 GMT; path\u003d/; domain\u003d.reqres.in; HttpOnly; SameSite\u003dLax; Secure\r\nX-Powered-By: Express\r\nAccess-Control-Allow-Origin: *\r\nEtag: W/\"4c5-znzuruTKwnH4068T7ikF88YcCME\"\r\nVia: 1.1 vegur\r\nCache-Control: max-age\u003d14400\r\nCF-Cache-Status: HIT\r\nAge: 5745\r\ncf-request-id: 0369c9c34800000455993b3200000001\r\nExpect-CT: max-age\u003d604800, report-uri\u003d\"https://report-uri.cloudflare.com/cdn-cgi/beacon/expect-ct\"\r\nVary: Accept-Encoding\r\nServer: cloudflare\r\nCF-RAY: 5a56457edcfc0455-MIA\r\nContent-Encoding: gzip\r","responseCookies":"__cfduid\u003dd823bd5fae433dd429426f6852b9bd0d31592496532;Path\u003d/;Domain\u003d.reqres.in;Secure;HttpOnly;Expires\u003d18/07/20 04:08 PM\r","responseBody":"{\n    \"page\": 1,\n    \"per_page\": 6,\n    \"total\": 12,\n    \"total_pages\": 2,\n    \"data\": [\n        {\n            \"id\": 1,\n            \"email\": \"george.bluth@reqres.in\",\n            \"first_name\": \"George\",\n            \"last_name\": \"Bluth\",\n            \"avatar\": \"https://s3.amazonaws.com/uifaces/faces/twitter/calebogden/128.jpg\"\n        },\n        {\n            \"id\": 2,\n            \"email\": \"janet.weaver@reqres.in\",\n            \"first_name\": \"Janet\",\n            \"last_name\": \"Weaver\",\n            \"avatar\": \"https://s3.amazonaws.com/uifaces/faces/twitter/josephstein/128.jpg\"\n        },\n        {\n            \"id\": 3,\n            \"email\": \"emma.wong@reqres.in\",\n            \"first_name\": \"Emma\",\n            \"last_name\": \"Wong\",\n            \"avatar\": \"https://s3.amazonaws.com/uifaces/faces/twitter/olegpogodaev/128.jpg\"\n        },\n        {\n            \"id\": 4,\n            \"email\": \"eve.holt@reqres.in\",\n            \"first_name\": \"Eve\",\n            \"last_name\": \"Holt\",\n            \"avatar\": \"https://s3.amazonaws.com/uifaces/faces/twitter/marcoramires/128.jpg\"\n        },\n        {\n            \"id\": 5,\n            \"email\": \"charles.morris@reqres.in\",\n            \"first_name\": \"Charles\",\n            \"last_name\": \"Morris\",\n            \"avatar\": \"https://s3.amazonaws.com/uifaces/faces/twitter/stephenmoon/128.jpg\"\n        },\n        {\n            \"id\": 6,\n            \"email\": \"tracey.ramos@reqres.in\",\n            \"first_name\": \"Tracey\",\n            \"last_name\": \"Ramos\",\n            \"avatar\": \"https://s3.amazonaws.com/uifaces/faces/twitter/bigmancho/128.jpg\"\n        }\n    ],\n    \"ad\": {\n        \"company\": \"StatusCode Weekly\",\n        \"url\": \"http://statuscode.org/\",\n        \"text\": \"A weekly newsletter focusing on software development, infrastructure, the server, performance, and the stack end of things.\"\n    }\n}","statusCode":200},"precondition":false,"level":3}]}]}]},{"number":6,"description":"Then debe recibir las validaciones necesarias rest servicio1","duration":122,"startTime":"2020-06-18T11:08:50.449-05:00[America/Bogota]","result":"SUCCESS","precondition":false,"level":0,"children":[{"number":7,"description":"Then El responsecode  should be (200)","duration":4,"startTime":"2020-06-18T11:08:50.561-05:00[America/Bogota]","result":"SUCCESS","precondition":false,"level":1},{"number":8,"description":"Then Usuario no es null should be not null","duration":1,"startTime":"2020-06-18T11:08:50.568-05:00[America/Bogota]","result":"SUCCESS","precondition":false,"level":1},{"number":9,"description":"Then El email del usuario should be \u0027george.bluth@reqres.in\u0027","duration":1,"startTime":"2020-06-18T11:08:50.570-05:00[America/Bogota]","result":"SUCCESS","precondition":false,"level":1}]}],"userStory":{"id":"validacion-rest-servicio1","storyName":"Validacion Rest servicio1","path":"C:/Users/lucho/IdeaProjects/rappi1/src/resources/features/test1.feature","narrative":"  Se requiere validar el response code y un campo del response","type":"feature"},"featureTag":{"name":"Features/Validacion Rest servicio1","type":"feature","displayName":"Features/Validacion Rest servicio1"},"title":"Validacion Correcta de Api servicio1","tags":[{"name":"Validacion Rest servicio1","type":"feature","displayName":"Validacion Rest servicio1"}],"startTime":"2020-06-18T11:08:46.613-05:00[America/Bogota]","duration":3961,"projectKey":"","manual":false,"testSource":"Cucumber","actors":[{"name":"Luis Qa Auto Tester","can":["call an API at https://reqres.in/api"]}],"result":"SUCCESS"}