{"name":"getUsers","id":"RappiInitialRestTest:getUsers","testCaseName":"RappiInitialRestTest","testSteps":[{"number":1,"description":"Luis Qa Auto Tester executes a GET on the resource /users?page\u003d2","duration":4589,"startTime":"2020-06-18T08:57:28.028-05:00[America/Bogota]","result":"SUCCESS","precondition":false,"level":0,"children":[{"number":2,"description":"GET https://reqres.in/api/users?page\u003d2\r","duration":2,"startTime":"2020-06-18T08:57:32.517-05:00[America/Bogota]","result":"SUCCESS","restQuery":{"method":"GET","path":"https://reqres.in/api/users?page\u003d2\r","content":"\r","contentType":"null","requestHeaders":"Accept\u003d*/*\r","requestCookies":"\r","responseHeaders":"Date: Thu, 18 Jun 2020 13:57:34 GMT\r\nContent-Type: application/json; charset\u003dutf-8\r\nTransfer-Encoding: chunked\r\nConnection: keep-alive\r\nSet-Cookie: __cfduid\u003dd4843859b7a73895292c563299b9ff93f1592488654; expires\u003dSat, 18-Jul-20 13:57:34 GMT; path\u003d/; domain\u003d.reqres.in; HttpOnly; SameSite\u003dLax; Secure\r\nX-Powered-By: Express\r\nAccess-Control-Allow-Origin: *\r\nEtag: W/\"4dd-IPv5LdOOb6s5S9E3i59wBCJ1k/0\"\r\nVia: 1.1 vegur\r\nCache-Control: max-age\u003d14400\r\nCF-Cache-Status: HIT\r\nAge: 4341\r\ncf-request-id: 0369518d6c0000d4f97cb9d200000001\r\nExpect-CT: max-age\u003d604800, report-uri\u003d\"https://report-uri.cloudflare.com/cdn-cgi/beacon/expect-ct\"\r\nVary: Accept-Encoding\r\nServer: cloudflare\r\nCF-RAY: 5a558528af25d4f9-MIA\r\nContent-Encoding: gzip\r","responseCookies":"__cfduid\u003dd4843859b7a73895292c563299b9ff93f1592488654;Path\u003d/;Domain\u003d.reqres.in;Secure;HttpOnly;Expires\u003d18/07/20 01:57 PM\r","responseBody":"{\n    \"page\": 2,\n    \"per_page\": 6,\n    \"total\": 12,\n    \"total_pages\": 2,\n    \"data\": [\n        {\n            \"id\": 7,\n            \"email\": \"michael.lawson@reqres.in\",\n            \"first_name\": \"Michael\",\n            \"last_name\": \"Lawson\",\n            \"avatar\": \"https://s3.amazonaws.com/uifaces/faces/twitter/follettkyle/128.jpg\"\n        },\n        {\n            \"id\": 8,\n            \"email\": \"lindsay.ferguson@reqres.in\",\n            \"first_name\": \"Lindsay\",\n            \"last_name\": \"Ferguson\",\n            \"avatar\": \"https://s3.amazonaws.com/uifaces/faces/twitter/araa3185/128.jpg\"\n        },\n        {\n            \"id\": 9,\n            \"email\": \"tobias.funke@reqres.in\",\n            \"first_name\": \"Tobias\",\n            \"last_name\": \"Funke\",\n            \"avatar\": \"https://s3.amazonaws.com/uifaces/faces/twitter/vivekprvr/128.jpg\"\n        },\n        {\n            \"id\": 10,\n            \"email\": \"byron.fields@reqres.in\",\n            \"first_name\": \"Byron\",\n            \"last_name\": \"Fields\",\n            \"avatar\": \"https://s3.amazonaws.com/uifaces/faces/twitter/russoedu/128.jpg\"\n        },\n        {\n            \"id\": 11,\n            \"email\": \"george.edwards@reqres.in\",\n            \"first_name\": \"George\",\n            \"last_name\": \"Edwards\",\n            \"avatar\": \"https://s3.amazonaws.com/uifaces/faces/twitter/mrmoiree/128.jpg\"\n        },\n        {\n            \"id\": 12,\n            \"email\": \"rachel.howell@reqres.in\",\n            \"first_name\": \"Rachel\",\n            \"last_name\": \"Howell\",\n            \"avatar\": \"https://s3.amazonaws.com/uifaces/faces/twitter/hebertialmeida/128.jpg\"\n        }\n    ],\n    \"ad\": {\n        \"company\": \"StatusCode Weekly\",\n        \"url\": \"http://statuscode.org/\",\n        \"text\": \"A weekly newsletter focusing on software development, infrastructure, the server, performance, and the stack end of things.\"\n    }\n}","statusCode":200},"precondition":false,"level":1}]}],"userStory":{"id":"RappiInitialRestTest","storyName":"Rappi initial rest test","storyClassName":"RappiInitialRestTest","path":"","type":"story"},"featureTag":{"name":"Rappi initial rest test","type":"story","displayName":"Rappi initial rest test"},"title":"Get users","tags":[{"name":"Rappi initial rest test","type":"story","displayName":"Rappi initial rest test"}],"startTime":"2020-06-18T08:57:27.792-05:00[America/Bogota]","duration":4894,"projectKey":"","manual":false,"testSource":"JUnit","actors":[{"name":"Luis Qa Auto Tester","can":["call an API at https://reqres.in/api"]}],"result":"SUCCESS"}