{"name":"Validacion Correcta de Api","id":"validacion-rest;validacion-correcta-de-api","testSteps":[{"number":1,"description":"Given Luis quiere consumir el api rest","duration":211,"startTime":"2020-06-18T10:37:24.885-05:00[America/Bogota]","result":"SUCCESS","precondition":false,"level":0},{"number":2,"description":"When el envia la peticion","duration":4437,"startTime":"2020-06-18T10:37:25.103-05:00[America/Bogota]","result":"SUCCESS","precondition":false,"level":0,"children":[{"number":3,"description":"Luis qa auto tester get users","duration":4150,"startTime":"2020-06-18T10:37:25.241-05:00[America/Bogota]","result":"SUCCESS","precondition":false,"level":1,"children":[{"number":4,"description":"Luis Qa Auto Tester executes a GET on the resource /users?page\u003d1","duration":4052,"startTime":"2020-06-18T10:37:25.335-05:00[America/Bogota]","result":"SUCCESS","precondition":false,"level":2,"children":[{"number":5,"description":"GET https://reqres.in/api/users?page\u003d1\r","duration":0,"startTime":"2020-06-18T10:37:29.387-05:00[America/Bogota]","result":"SUCCESS","restQuery":{"method":"GET","path":"https://reqres.in/api/users?page\u003d1\r","content":"\r","contentType":"application/json","requestHeaders":"header1\u003dvalue1\r\n\t\t\t\tAccept\u003d*/*\r\n\t\t\t\tContent-Type\u003dapplication/json; charset\u003dUTF-8\r","requestCookies":"\r","responseHeaders":"Date: Thu, 18 Jun 2020 15:37:31 GMT\r\nContent-Type: application/json; charset\u003dutf-8\r\nTransfer-Encoding: chunked\r\nConnection: keep-alive\r\nSet-Cookie: __cfduid\u003ddd7b9e1e035dbe1942c68a142c5b1ee001592494651; expires\u003dSat, 18-Jul-20 15:37:31 GMT; path\u003d/; domain\u003d.reqres.in; HttpOnly; SameSite\u003dLax; Secure\r\nX-Powered-By: Express\r\nAccess-Control-Allow-Origin: *\r\nEtag: W/\"4c5-znzuruTKwnH4068T7ikF88YcCME\"\r\nVia: 1.1 vegur\r\nCache-Control: max-age\u003d14400\r\nCF-Cache-Status: HIT\r\nAge: 3864\r\ncf-request-id: 0369ad0f6a0000e944631bb200000001\r\nExpect-CT: max-age\u003d604800, report-uri\u003d\"https://report-uri.cloudflare.com/cdn-cgi/beacon/expect-ct\"\r\nVary: Accept-Encoding\r\nServer: cloudflare\r\nCF-RAY: 5a5617924b92e944-MIA\r\nContent-Encoding: gzip\r","responseCookies":"__cfduid\u003ddd7b9e1e035dbe1942c68a142c5b1ee001592494651;Path\u003d/;Domain\u003d.reqres.in;Secure;HttpOnly;Expires\u003d18/07/20 03:37 PM\r","responseBody":"{\n    \"page\": 1,\n    \"per_page\": 6,\n    \"total\": 12,\n    \"total_pages\": 2,\n    \"data\": [\n        {\n            \"id\": 1,\n            \"email\": \"george.bluth@reqres.in\",\n            \"first_name\": \"George\",\n            \"last_name\": \"Bluth\",\n            \"avatar\": \"https://s3.amazonaws.com/uifaces/faces/twitter/calebogden/128.jpg\"\n        },\n        {\n            \"id\": 2,\n            \"email\": \"janet.weaver@reqres.in\",\n            \"first_name\": \"Janet\",\n            \"last_name\": \"Weaver\",\n            \"avatar\": \"https://s3.amazonaws.com/uifaces/faces/twitter/josephstein/128.jpg\"\n        },\n        {\n            \"id\": 3,\n            \"email\": \"emma.wong@reqres.in\",\n            \"first_name\": \"Emma\",\n            \"last_name\": \"Wong\",\n            \"avatar\": \"https://s3.amazonaws.com/uifaces/faces/twitter/olegpogodaev/128.jpg\"\n        },\n        {\n            \"id\": 4,\n            \"email\": \"eve.holt@reqres.in\",\n            \"first_name\": \"Eve\",\n            \"last_name\": \"Holt\",\n            \"avatar\": \"https://s3.amazonaws.com/uifaces/faces/twitter/marcoramires/128.jpg\"\n        },\n        {\n            \"id\": 5,\n            \"email\": \"charles.morris@reqres.in\",\n            \"first_name\": \"Charles\",\n            \"last_name\": \"Morris\",\n            \"avatar\": \"https://s3.amazonaws.com/uifaces/faces/twitter/stephenmoon/128.jpg\"\n        },\n        {\n            \"id\": 6,\n            \"email\": \"tracey.ramos@reqres.in\",\n            \"first_name\": \"Tracey\",\n            \"last_name\": \"Ramos\",\n            \"avatar\": \"https://s3.amazonaws.com/uifaces/faces/twitter/bigmancho/128.jpg\"\n        }\n    ],\n    \"ad\": {\n        \"company\": \"StatusCode Weekly\",\n        \"url\": \"http://statuscode.org/\",\n        \"text\": \"A weekly newsletter focusing on software development, infrastructure, the server, performance, and the stack end of things.\"\n    }\n}","statusCode":200},"precondition":false,"level":3}]}]},{"number":6,"description":"Then El responsecode  should be (200)","duration":4,"startTime":"2020-06-18T10:37:29.489-05:00[America/Bogota]","result":"SUCCESS","precondition":false,"level":1}]},{"number":7,"description":"Then debe recibir las validaciones necesarias","duration":7,"startTime":"2020-06-18T10:37:29.541-05:00[America/Bogota]","result":"SUCCESS","precondition":false,"level":0,"children":[{"number":8,"description":"Then Usuario no es null should be not null","duration":0,"startTime":"2020-06-18T10:37:29.545-05:00[America/Bogota]","result":"SUCCESS","precondition":false,"level":1},{"number":9,"description":"Then El email del usuario should be \u0027george.bluth@reqres.in\u0027","duration":0,"startTime":"2020-06-18T10:37:29.547-05:00[America/Bogota]","result":"SUCCESS","precondition":false,"level":1}]}],"userStory":{"id":"validacion-rest","storyName":"Validacion Rest","path":"C:/Users/lucho/IdeaProjects/rappi1/src/resources/features/test1.feature","narrative":"  Se requiere validar el response code y un campo del response","type":"feature"},"featureTag":{"name":"Features/Validacion Rest","type":"feature","displayName":"Features/Validacion Rest"},"title":"Validacion Correcta de Api","tags":[{"name":"Validacion Rest","type":"feature","displayName":"Validacion Rest"}],"startTime":"2020-06-18T10:37:24.787-05:00[America/Bogota]","duration":4764,"projectKey":"","manual":false,"testSource":"Cucumber","actors":[{"name":"Luis Qa Auto Tester","can":["call an API at https://reqres.in/api"]}],"result":"SUCCESS"}